{"code":0,"message":null,"data":{"pageNo":1,"pageSize":50,"totalPage":12,"total":587,"hasNextPage":true,"hasPreviousPage":false,"firstPage":true,"lastPage":false,"rows":[{"channelId":"e840ac95ec074044a9970f18adf3bc08","channelNo":1,"channelName":"iDS-2DF9C435MHS-DFWSPT2JM(234159849)","groupId":"e607b888f933454ea527791f7819966d","groupType":"1","groupName":"球机","deviceId":"4648978afa814177a38ca78c776a5c9d","deviceName":"234159849","deviceSerial":"234159849","deviceType":"10240","deviceModel":"iDS-2DF9C435MHS-DFW/SP/T2/JM","cameraCanUse":null,"imageCompareDisabled":true,"presetInfo":[]},{"channelId":"7a344eaca55e42b1a14497d6068c2db6","channelNo":1,"channelName":"修改DS-2CD2935FWD-IS(238898722)","groupId":"486b524de41a46399114f8b92bffdca9","groupType":"1","groupName":"鱼眼设备","deviceId":"454578438c1341b2aa47b0034fdd3b74","deviceName":"鱼眼","deviceSerial":"238898722","deviceType":"10240","deviceModel":"DS-2CD2935FWD-IS","cameraCanUse":null,"imageCompareDisabled":true,"presetInfo":[]},{"channelId":"2cefc7a1a9354a3aa9d4663109f6b7e4","channelNo":1,"channelName":"Camera01","groupId":"7b504cf578a14ea1b1e12e954b724d71","groupType":"1","groupName":"双目客流2","deviceId":"b2140ccc0de24c05be279c8f439b5e06","deviceName":"247732981","deviceSerial":"247732981","deviceType":"10220","deviceModel":"iDS-2CD6810F/C","cameraCanUse":null,"imageCompareDisabled":true,"presetInfo":[]},{"channelId":"c03de9d5e93948c79fc9c6331fd4dc6a","channelNo":1,"channelName":"Camera01","groupId":"dbd2dfb49b4f4a5a857d9cd1c95de39f","groupType":"1","groupName":"222222","deviceId":"d8f48a34d4664a1f9010383b24f4cedb","deviceName":"研发测试","deviceSerial":"688820523","deviceType":"10220","deviceModel":"iDS-2CD6810F/C","cameraCanUse":null,"imageCompareDisabled":false,"presetInfo":[{"presetId":"75cef21ec91c47529a11448b7d27b309","presetIndex":1,"presetName":"新增预置点0","imageCompareDisabled":false}]},{"channelId":"36021ae2c14e42abaf578cca2940a6b3","channelNo":1,"channelName":"C2C(C17369415)","groupId":"ad583ed7cd7e4850b3a6d914d01c9884","groupType":"1","groupName":"普通设备真的很2","deviceId":"cf51e9e7d1ed4a469db20247913a211b","deviceName":"C17369415","deviceSerial":"C17369415","deviceType":"10230","deviceModel":"CS-C2C-1A1WFR","cameraCanUse":null,"imageCompareDisabled":true,"presetInfo":[]},{"channelId":"494ba30a59034860ac145214ca579ca4","channelNo":1,"channelName":"C37502433","groupId":"22c11d81373b4d13a4784944cd921db2","groupType":"1","groupName":"取流测试","deviceId":"23aedc5d6afa4e2f9dba81d40a6b877b","deviceName":"C37502433","deviceSerial":"C37502433","deviceType":"10240","deviceModel":"DS-2DE4420IW-DE","cameraCanUse":null,"imageCompareDisabled":true,"presetInfo":[{"presetId":"469a0ba3af3d4df2947612b8efba48f2","presetIndex":3,"presetName":"0","imageCompareDisabled":true},{"presetId":"53e73ac58dda4a5b8bbde56443f08cf3","presetIndex":4,"presetName":"00","imageCompareDisabled":true},{"presetId":"5cc91ff6bce44150b53d17a3a2d88610","presetIndex":1,"presetName":"新增预置点0","imageCompareDisabled":true},{"presetId":"c863224d27d14930bd0c54e9db6d2710","presetIndex":2,"presetName":"新增预置点1","imageCompareDisabled":true}]},{"channelId":"f0b79d0def744894acf7930810530f59","channelNo":1,"channelName":"1368210","groupId":"dbd2dfb49b4f4a5a857d9cd1c95de39f","groupType":"1","groupName":"222222","deviceId":"fe8660b538084546bc3025583df7597e","deviceName":"C39896906","deviceSerial":"C39896906","deviceType":"10240","deviceModel":"DS-2CD2336FWD-IS","cameraCanUse":null,"imageCompareDisabled":true,"presetInfo":[]},{"channelId":"7bf81e88868b4586ae266791524810e8","channelNo":1,"channelName":"DS-2XA8A45-LZS(C87503883)","groupId":"a808c32e9e5143a6967af28d43b139b7","groupType":"1","groupName":"zh_智联中心","deviceId":"8d84d2e1562c44219b2c2943d3307452","deviceName":"C87503883","deviceSerial":"C87503883","deviceType":"20102","deviceModel":"DS-2XA8A45-LZS","cameraCanUse":null,"imageCompareDisabled":false,"presetInfo":[]},{"channelId":"aeac84f49f324776b3b7978c935ef87f","channelNo":1,"channelName":"DS-2XA8025-A(C87513270)","groupId":"ef7672dc246c4ef0804c600fc274f6be","groupType":"1","groupName":"IPC-H7","deviceId":"6104f556ee9b4db49cfdfbbd7bffe37a","deviceName":"C87513270","deviceSerial":"C87513270","deviceType":"20102","deviceModel":"DS-2XA8025-A","cameraCanUse":null,"imageCompareDisabled":true,"presetInfo":[]},{"channelId":"851ee16df1e94880b7d6dc576260ef19","channelNo":1,"channelName":"IPPositioningSystem12321哈哈哈哈chaojichangdetongdaom1","groupId":"df8172867655472eaff34e522048584b","groupType":"1","groupName":"云台设备","deviceId":"f4bcfdeb182d45919731d15f7295a76c","deviceName":"D31685356","deviceSerial":"D31685356","deviceType":"10222","deviceModel":"iDS-2PT7T40MX-D4/JM/T3","cameraCanUse":null,"imageCompareDisabled":false,"presetInfo":[{"presetId":"1ecfd1c26fbf40c1a5548176589da6e8","presetIndex":3,"presetName":"测试3下","imageCompareDisabled":false},{"presetId":"2d6db519cd974f8294fbdb36ea47ec67","presetIndex":5,"presetName":"未完成","imageCompareDisabled":false},{"presetId":"99ccbd7e89fc473ab9ec81df693ecc26","presetIndex":2,"presetName":"测试2下112请请请","imageCompareDisabled":false},{"presetId":"bfc8dcfd928a4cda8bdac17262dbfc36","presetIndex":1,"presetName":"测试下","imageCompareDisabled":false},{"presetId":"dc165ca918a044a2a5d453a8542fa2ec","presetIndex":4,"presetName":"失败","imageCompareDisabled":false},{"presetId":"dc6be9c9fa39460b969ac48e1e043cdf","presetIndex":7,"presetName":"新增预置点6","imageCompareDisabled":true}]},{"channelId":"e693c174fea7424e8a892207093c59cc","channelNo":1,"channelName":"1368253","groupId":"22c11d81373b4d13a4784944cd921db2","groupType":"1","groupName":"取流测试","deviceId":"0748ecc6f62143d987e1424ed78c135e","deviceName":"D43789471","deviceSerial":"D43789471","deviceType":"10242","deviceModel":"DS-8632N-K8","cameraCanUse":null,"imageCompareDisabled":true,"presetInfo":[]},{"channelId":"dd1a0400e51a4fc8b0054c91bffc5258","channelNo":2,"channelName":"45102","groupId":"22c11d81373b4d13a4784944cd921db2","groupType":"1","groupName":"取流测试","deviceId":"0748ecc6f62143d987e1424ed78c135e","deviceName":"D43789471","deviceSerial":"D43789471","deviceType":"10242","deviceModel":"DS-8632N-K8","cameraCanUse":null,"imageCompareDisabled":true,"presetInfo":[]},{"channelId":"1f43b7f4b3824ff5b05c34ad543cc916","channelNo":3,"channelName":"1368247","groupId":"22c11d81373b4d13a4784944cd921db2","groupType":"1","groupName":"取流测试","deviceId":"0748ecc6f62143d987e1424ed78c135e","deviceName":"D43789471","deviceSerial":"D43789471","deviceType":"10242","deviceModel":"DS-8632N-K8","cameraCanUse":null,"imageCompareDisabled":true,"presetInfo":[]},{"channelId":"ea45b76b2d2c4668884c818bc9f93c7a","channelNo":4,"channelName":"Camera01改","groupId":"22c11d81373b4d13a4784944cd921db2","groupType":"1","groupName":"取流测试","deviceId":"0748ecc6f62143d987e1424ed78c135e","deviceName":"D43789471","deviceSerial":"D43789471","deviceType":"10242","deviceModel":"DS-8632N-K8","cameraCanUse":null,"imageCompareDisabled":true,"presetInfo":[]},{"channelId":"7cae27aeb83545d185154fd129f36c3c","channelNo":5,"channelName":"104160233","groupId":"22c11d81373b4d13a4784944cd921db2","groupType":"1","groupName":"取流测试","deviceId":"0748ecc6f62143d987e1424ed78c135e","deviceName":"D43789471","deviceSerial":"D43789471","deviceType":"10242","deviceModel":"DS-8632N-K8","cameraCanUse":null,"imageCompareDisabled":true,"presetInfo":[]},{"channelId":"82e9462b177940a4a8bc521807537e8b","channelNo":6,"channelName":"1368239","groupId":"22c11d81373b4d13a4784944cd921db2","groupType":"1","groupName":"取流测试","deviceId":"0748ecc6f62143d987e1424ed78c135e","deviceName":"D43789471","deviceSerial":"D43789471","deviceType":"10242","deviceModel":"DS-8632N-K8","cameraCanUse":null,"imageCompareDisabled":true,"presetInfo":[]},{"channelId":"0be412103d7b47369097e917b794d724","channelNo":7,"channelName":"IPdome-111111","groupId":"22c11d81373b4d13a4784944cd921db2","groupType":"1","groupName":"取流测试","deviceId":"0748ecc6f62143d987e1424ed78c135e","deviceName":"D43789471","deviceSerial":"D43789471","deviceType":"10242","deviceModel":"DS-8632N-K8","cameraCanUse":null,"imageCompareDisabled":true,"presetInfo":[]},{"channelId":"ff8ec2c6f0144d87b771f2417376d2c1","channelNo":8,"channelName":"Camera01test改啊","groupId":"22c11d81373b4d13a4784944cd921db2","groupType":"1","groupName":"取流测试","deviceId":"0748ecc6f62143d987e1424ed78c135e","deviceName":"D43789471","deviceSerial":"D43789471","deviceType":"10242","deviceModel":"DS-8632N-K8","cameraCanUse":null,"imageCompareDisabled":true,"presetInfo":[]},{"channelId":"6598756764354fd4953a3bb83ef76c81","channelNo":1,"channelName":"DS-2XA8827E-IZS(D50583567)","groupId":"afb2ac793615475b804b968d45b279bf","groupType":"1","groupName":"普通设备","deviceId":"8e7ea04a596845b59d74fadec6242689","deviceName":"D50583567","deviceSerial":"D50583567","deviceType":"20104","deviceModel":"DS-2XA8827E-IZS","cameraCanUse":null,"imageCompareDisabled":true,"presetInfo":[]},{"channelId":"befd21ac2c314a01a3d5b3dddb1fa882","channelNo":1,"channelName":"录像有问题test3","groupId":"afb2ac793615475b804b968d45b279bf","groupType":"1","groupName":"普通设备","deviceId":"958f4747071e41d48b1331b831e58404","deviceName":"F02042655","deviceSerial":"F02042655","deviceType":"10240","deviceModel":"DS-2CD2686FWDV3-IZS","cameraCanUse":null,"imageCompareDisabled":false,"presetInfo":[]},{"channelId":"1ff95f92325a44a0bedf5569aaa8e6e0","channelNo":1,"channelName":"Camera01","groupId":"ad583ed7cd7e4850b3a6d914d01c9884","groupType":"1","groupName":"普通设备真的很2","deviceId":"cea9af6a907d44b5b58a1f0dd7defec4","deviceName":"F58167052","deviceSerial":"F58167052","deviceType":"10222","deviceModel":"DS-2CD2626FWDA2-IZS","cameraCanUse":null,"imageCompareDisabled":false,"presetInfo":[]},{"channelId":"ab95f093f984437fa5a151247c5465d2","channelNo":1,"channelName":"xmenchannelName","groupId":"40b24fdd9b4b416ba06382c907b9d6ce","groupType":"1","groupName":"NVR-KT2","deviceId":"79cbd2ea039d43de91d4143b06107391","deviceName":"F62138015","deviceSerial":"F62138015","deviceType":"20106","deviceModel":"iDS-9632NX-I8/AI-V2","cameraCanUse":null,"imageCompareDisabled":false,"presetInfo":[]},{"channelId":"8f3b0d0d6ee84954a382b82c2a22d366","channelNo":2,"channelName":"1修改@DS-7604NB-K1(E62528109)","groupId":"40b24fdd9b4b416ba06382c907b9d6ce","groupType":"1","groupName":"NVR-KT2","deviceId":"79cbd2ea039d43de91d4143b06107391","deviceName":"F62138015","deviceSerial":"F62138015","deviceType":"20106","deviceModel":"iDS-9632NX-I8/AI-V2","cameraCanUse":null,"imageCompareDisabled":true,"presetInfo":[{"presetId":"30882a59592249699a58c5df5072af8a","presetIndex":1,"presetName":"新增预置点0","imageCompareDisabled":true}]},{"channelId":"533fcbf715a242e29c93b566ff3451af","channelNo":3,"channelName":"Camera0112","groupId":"40b24fdd9b4b416ba06382c907b9d6ce","groupType":"1","groupName":"NVR-KT2","deviceId":"79cbd2ea039d43de91d4143b06107391","deviceName":"F62138015","deviceSerial":"F62138015","deviceType":"20106","deviceModel":"iDS-9632NX-I8/AI-V2","cameraCanUse":null,"imageCompareDisabled":false,"presetInfo":[]},{"channelId":"189be262620d4502927986425ead5e70","channelNo":1,"channelName":"CTQ6X(F80693318)","groupId":"ad583ed7cd7e4850b3a6d914d01c9884","groupType":"1","groupName":"普通设备真的很2","deviceId":"804d37048dbd47ef950cb8ff5973438f","deviceName":"F80693318","deviceSerial":"F80693318","deviceType":"10230","deviceModel":"CS-CTQ6X-1G2WFR","cameraCanUse":null,"imageCompareDisabled":false,"presetInfo":[]},{"channelId":"b485f8572abd48a4829b2682a47dd3f0","channelNo":1,"channelName":"4.","groupId":"c3039b50775c4808883e22f587a90895","groupType":"1","groupName":"走廊模式","deviceId":"323f0c9ce0564f9889e5cdbd0f70872d","deviceName":"aaaaaa","deviceSerial":"F88704999","deviceType":"10240","deviceModel":"DS-2CD2346FWDA3-IS/DT","cameraCanUse":null,"imageCompareDisabled":true,"presetInfo":[]},{"channelId":"6719228890784753b27b07750ea9fd5b","channelNo":1,"channelName":"Camera01","groupId":"a808c32e9e5143a6967af28d43b139b7","groupType":"1","groupName":"zh_智联中心","deviceId":"85d861bbf3214393896acbe050f7a9e2","deviceName":"G25556250","deviceSerial":"G25556250","deviceType":"10240","deviceModel":"DS-2CD7A2D-AQM","cameraCanUse":null,"imageCompareDisabled":false,"presetInfo":[{"presetId":"34b95ebf3d0549a4ae22abfff3f8b7e7","presetIndex":2,"presetName":"777","imageCompareDisabled":false},{"presetId":"499d91b6d5034210b4319c3205b7b127","presetIndex":3,"presetName":"01","imageCompareDisabled":false},{"presetId":"9195c7789fcc4b4a95b67c16676b8e9e","presetIndex":1,"presetName":"0","imageCompareDisabled":false}]},{"channelId":"40e8671c7c304b1fb0ab596a0590e2c4","channelNo":1,"channelName":"视频1@DS-7604N-F1YZ(G32670968)","groupId":"31359f8cf68f49e5ad6346b451d17fa9","groupType":"1","groupName":"信息发布设备门店","deviceId":"28b99d1647294866924503899aaea6c4","deviceName":"武汉B3","deviceSerial":"G32670968","deviceType":"10287","deviceModel":"DS-7604N-F1/YZ","cameraCanUse":null,"imageCompareDisabled":true,"presetInfo":[]},{"channelId":"5311adce805045f89bf7e4a1fe78418a","channelNo":2,"channelName":"视频2@DS-7604N-F1YZ(G32670968)","groupId":"31359f8cf68f49e5ad6346b451d17fa9","groupType":"1","groupName":"信息发布设备门店","deviceId":"28b99d1647294866924503899aaea6c4","deviceName":"武汉B3","deviceSerial":"G32670968","deviceType":"10287","deviceModel":"DS-7604N-F1/YZ","cameraCanUse":null,"imageCompareDisabled":true,"presetInfo":[]},{"channelId":"faa1708bd89640ea9852fa5fe528604a","channelNo":3,"channelName":"视频3@DS-7604N-F1YZ(G32670968)","groupId":"31359f8cf68f49e5ad6346b451d17fa9","groupType":"1","groupName":"信息发布设备门店","deviceId":"28b99d1647294866924503899aaea6c4","deviceName":"武汉B3","deviceSerial":"G32670968","deviceType":"10287","deviceModel":"DS-7604N-F1/YZ","cameraCanUse":null,"imageCompareDisabled":true,"presetInfo":[]},{"channelId":"cfa07fb635dc482480b189cdf706f73f","channelNo":4,"channelName":"视频4@DS-7604N-F1YZ(G32670968)","groupId":"31359f8cf68f49e5ad6346b451d17fa9","groupType":"1","groupName":"信息发布设备门店","deviceId":"28b99d1647294866924503899aaea6c4","deviceName":"武汉B3","deviceSerial":"G32670968","deviceType":"10287","deviceModel":"DS-7604N-F1/YZ","cameraCanUse":null,"imageCompareDisabled":true,"presetInfo":[]},{"channelId":"91c945bca1c44a679346be7be9b4acb4","channelNo":1,"channelName":"11qqq","groupId":"31359f8cf68f49e5ad6346b451d17fa9","groupType":"1","groupName":"信息发布设备门店","deviceId":"40492f2f17d44e2db5e474a8e9677d2a","deviceName":"武汉B3-2","deviceSerial":"G32670971","deviceType":"10287","deviceModel":"DS-7604N-F1/YZ","cameraCanUse":null,"imageCompareDisabled":true,"presetInfo":[]},{"channelId":"c80ad8bc3dd5449387fc26431b0585bd","channelNo":2,"channelName":"7777","groupId":"31359f8cf68f49e5ad6346b451d17fa9","groupType":"1","groupName":"信息发布设备门店","deviceId":"40492f2f17d44e2db5e474a8e9677d2a","deviceName":"武汉B3-2","deviceSerial":"G32670971","deviceType":"10287","deviceModel":"DS-7604N-F1/YZ","cameraCanUse":null,"imageCompareDisabled":true,"presetInfo":[]},{"channelId":"923e2a48622c44acb567f6a55bf3d57a","channelNo":3,"channelName":"Camera01","groupId":"31359f8cf68f49e5ad6346b451d17fa9","groupType":"1","groupName":"信息发布设备门店","deviceId":"40492f2f17d44e2db5e474a8e9677d2a","deviceName":"武汉B3-2","deviceSerial":"G32670971","deviceType":"10287","deviceModel":"DS-7604N-F1/YZ","cameraCanUse":null,"imageCompareDisabled":true,"presetInfo":[]},{"channelId":"b690b4dc65484e42a9c4da30dfd2567f","channelNo":4,"channelName":"IPdome","groupId":"31359f8cf68f49e5ad6346b451d17fa9","groupType":"1","groupName":"信息发布设备门店","deviceId":"40492f2f17d44e2db5e474a8e9677d2a","deviceName":"武汉B3-2","deviceSerial":"G32670971","deviceType":"10287","deviceModel":"DS-7604N-F1/YZ","cameraCanUse":null,"imageCompareDisabled":true,"presetInfo":[]},{"channelId":"1fb8a4b0278c4612b1e3e27e7e0add0a","channelNo":1,"channelName":"IPCamera01","groupId":"41709e479f014b5194343768df8cebec","groupType":"1","groupName":"【特殊门店】","deviceId":"f56e48d0701d4ba496c8369ca66b860a","deviceName":"MC客流","deviceSerial":"G97456493","deviceType":"10220","deviceModel":"DS-2XD8087F/MC-A","cameraCanUse":null,"imageCompareDisabled":true,"presetInfo":[]},{"channelId":"ab0ba1b7bf81433493762321acde8170","channelNo":1,"channelName":"DS-2XA8227F-LZS(G99959097)","groupId":"ef7672dc246c4ef0804c600fc274f6be","groupType":"1","groupName":"IPC-H7","deviceId":"79fb8f218d0e4d9faf7c80b3b97b36bd","deviceName":"G99959097","deviceSerial":"G99959097","deviceType":"20102","deviceModel":"DS-2XA8227F-LZS","cameraCanUse":null,"imageCompareDisabled":true,"presetInfo":[]},{"channelId":"4c3e9fc16a1e47918dfad03a638c91ed","channelNo":1,"channelName":"DS-2CD7125EWDV2-IZSDN(J40189120)","groupId":"577bcdd1ba834308b96e7c057f0ea71f","groupType":"1","groupName":"IPC-G5","deviceId":"333e5864e85644028ae2773cd5d50b9c","deviceName":"J40189120","deviceSerial":"J40189120","deviceType":"20107","deviceModel":"DS-2CD7125EWDV2-IZS/DN","cameraCanUse":null,"imageCompareDisabled":true,"presetInfo":[]},{"channelId":"2a6194e3be694491b538c1b1896c8e0a","channelNo":1,"channelName":"DS-2XA8025F-A(J40230680)","groupId":"ef7672dc246c4ef0804c600fc274f6be","groupType":"1","groupName":"IPC-H7","deviceId":"2534c808da484e2190869cb1f9efa32a","deviceName":"J40230680","deviceSerial":"J40230680","deviceType":"20102","deviceModel":"DS-2XA8025F-A","cameraCanUse":null,"imageCompareDisabled":true,"presetInfo":[]},{"channelId":"25ba731dbd2b4184b7f22a09f5a1d39e","channelNo":1,"channelName":"Camera01","groupId":"a808c32e9e5143a6967af28d43b139b7","groupType":"1","groupName":"zh_智联中心","deviceId":"d2975dd4904d4181a26a245cf81057b4","deviceName":"J42120615","deviceSerial":"J42120615","deviceType":"10273","deviceModel":"DS-2CD8A47F/PW-Z","cameraCanUse":null,"imageCompareDisabled":false,"presetInfo":[{"presetId":"c58117f2b3d045dd92b4a1f768ed4eb1","presetIndex":1,"presetName":"7777","imageCompareDisabled":false}]},{"channelId":"2b16d60e201f4288ad1c823ddc5f55cb","channelNo":1,"channelName":"视频1@iDS-9632NX-I8AI-V2(J42839102)","groupId":"40b24fdd9b4b416ba06382c907b9d6ce","groupType":"1","groupName":"NVR-KT2","deviceId":"1913c865a1684cceb3b16155d59dcb17","deviceName":"J42839102","deviceSerial":"J42839102","deviceType":"20106","deviceModel":"iDS-9632NX-I8/AI-V2","cameraCanUse":null,"imageCompareDisabled":true,"presetInfo":[]},{"channelId":"cfdd336a78414dcc874745d7653e5dd9","channelNo":2,"channelName":"IPdome","groupId":"40b24fdd9b4b416ba06382c907b9d6ce","groupType":"1","groupName":"NVR-KT2","deviceId":"1913c865a1684cceb3b16155d59dcb17","deviceName":"J42839102","deviceSerial":"J42839102","deviceType":"20106","deviceModel":"iDS-9632NX-I8/AI-V2","cameraCanUse":null,"imageCompareDisabled":true,"presetInfo":[{"presetId":"a8d77ab3ed254548b61d3635028adafb","presetIndex":2,"presetName":"222","imageCompareDisabled":true},{"presetId":"c88b66d1e56c42f6b54992dc4f1f56a2","presetIndex":1,"presetName":"111","imageCompareDisabled":true}]},{"channelId":"462de82df0a14bc9af4b7d0d8fccf5e9","channelNo":3,"channelName":"视频3@iDS-9632NX-I8AI-V2(J42839102)","groupId":"40b24fdd9b4b416ba06382c907b9d6ce","groupType":"1","groupName":"NVR-KT2","deviceId":"1913c865a1684cceb3b16155d59dcb17","deviceName":"J42839102","deviceSerial":"J42839102","deviceType":"20106","deviceModel":"iDS-9632NX-I8/AI-V2","cameraCanUse":null,"imageCompareDisabled":true,"presetInfo":[]},{"channelId":"d46106b673cc4d19acf6ada889eaa4ac","channelNo":1,"channelName":"DS-MCC(J47804904)","groupId":"74cbb0540171434ca86fa86c81c06fbf","groupType":"1","groupName":"FJH门店","deviceId":"544261e974924c42b73c72293e55f014","deviceName":"J47804904","deviceSerial":"J47804904","deviceType":"10240","deviceModel":"DS-MCC","cameraCanUse":null,"imageCompareDisabled":true,"presetInfo":[]},{"channelId":"22b7654f4d654d78b1ea670891a4a56b","channelNo":1,"channelName":"Camera01","groupId":"afb2ac793615475b804b968d45b279bf","groupType":"1","groupName":"普通设备","deviceId":"94fcfa3c2e8a4eae99f5ed7a7ccf149c","deviceName":"J64516206","deviceSerial":"J64516206","deviceType":"10222","deviceModel":"DS-2XD8087F/MC-A","cameraCanUse":null,"imageCompareDisabled":true,"presetInfo":[]},{"channelId":"b7c2d4580f7648789ef365ab17d57e5b","channelNo":1,"channelName":"IPdome01","groupId":"afd0ff9be5ef4cb7b23fdb3148892233","groupType":"1","groupName":"11111vvvvvdddd","deviceId":"a36599d18a704a5f90bbe69d54826ea1","deviceName":"J65526534","deviceSerial":"J65526534","deviceType":"10221","deviceModel":"DS-2CDVT-SFZGB-1B3V1K","cameraCanUse":null,"imageCompareDisabled":true,"presetInfo":[]},{"channelId":"f2c5b374a0ce46758998d42e75090647","channelNo":1,"channelName":"视频1@DS-8664N-I8(J89035487)","groupId":"0baadbe4214e46b1a1fb17034d394e8b","groupType":"1","groupName":"张慧忠临时设备8月占用稳定性测试","deviceId":"dc6f4468d1294b34851643ddd2745d36","deviceName":"QWERTY","deviceSerial":"J89035487","deviceType":"10242","deviceModel":"DS-8664N-I8","cameraCanUse":null,"imageCompareDisabled":true,"presetInfo":[]},{"channelId":"626ac19760ba4b0cbb820adef0df1e37","channelNo":2,"channelName":"视频2@DS-8664N-I8(J89035487)","groupId":"0baadbe4214e46b1a1fb17034d394e8b","groupType":"1","groupName":"张慧忠临时设备8月占用稳定性测试","deviceId":"dc6f4468d1294b34851643ddd2745d36","deviceName":"QWERTY","deviceSerial":"J89035487","deviceType":"10242","deviceModel":"DS-8664N-I8","cameraCanUse":null,"imageCompareDisabled":true,"presetInfo":[]},{"channelId":"f2e26b6407324c858878bc3049301df2","channelNo":3,"channelName":"视频3@DS-8664N-I8(J89035487)","groupId":"0baadbe4214e46b1a1fb17034d394e8b","groupType":"1","groupName":"张慧忠临时设备8月占用稳定性测试","deviceId":"dc6f4468d1294b34851643ddd2745d36","deviceName":"QWERTY","deviceSerial":"J89035487","deviceType":"10242","deviceModel":"DS-8664N-I8","cameraCanUse":null,"imageCompareDisabled":true,"presetInfo":[]},{"channelId":"73eb97819d41484183c4c2efabb9c218","channelNo":4,"channelName":"视频4@DS-8664N-I8(J89035487)","groupId":"0baadbe4214e46b1a1fb17034d394e8b","groupType":"1","groupName":"张慧忠临时设备8月占用稳定性测试","deviceId":"dc6f4468d1294b34851643ddd2745d36","deviceName":"QWERTY","deviceSerial":"J89035487","deviceType":"10242","deviceModel":"DS-8664N-I8","cameraCanUse":null,"imageCompareDisabled":true,"presetInfo":[]}]},"success":true}